{
  "name": "Segnala disservizio",
  "slug": "segnala-disservizio",
  "topic": "ambiente",
  "description": "Il servizio permette di segnalare un disservizio all'Amministrazione comunale, che provvederà a prendere il carico la segnalazione e risolvere la problematica segnalata nel minor tempo possibile, dandone comunicazione all'utente.",
  "short_description": "Il servizio permette di segnalare un disservizio all'Amministrazione comunale",
  "howto": "La segnalazione può essere effettuata attraverso il servizio on line disponibile nel footer del sito web istituzionale. E' necessario indicare il luogo nel quale il disservizio è stato riscontrato, fornire una descrizione della situazione segnalata e allegare eventuali immagini e documenti utili. L'utente inserisce poi i propri dati anagrafici e procede all'invio della segnalazione.",
  "how_to_do": "La segnalazione può essere effettuata attraverso il servizio on line disponibile nel footer del sito web istituzionale. E' necessario indicare il luogo nel quale il disservizio è stato riscontrato, fornire una descrizione della situazione segnalata e allegare eventuali immagini e documenti utili. L'utente inserisce poi i propri dati anagrafici e procede all'invio della segnalazione.",
  "what_you_need": "In fase della presentazione della segnalazione è possibile allegare immagini e documenti comprovanti il disservizio riscontrato.",
  "what_you_get": "Dopo l'invio della segnalazione, l'ufficio competente verificherà il disservizio riscontrato e provvederà a risolverlo, dandone comunicazione all'utente.",
  "costs": "Il servizio non prevede costi.",
  "costs_attachments": [],
  "who": "Il servizio è rivolto a tutti i cittadini che volessero segnalare un disservizio all'interno del territorio del Comune di Merano.",
  "special_cases": "",
  "more_info": "",
  "constraints": null,
  "times_and_deadlines": "L'Amministrazione comunale provvederà a prendere il carico la segnalazione e risolvere la problematica segnalata nel minor tempo possibile.",
  "booking_call_to_action": null,
  "conditions": "Per conoscere i dettagli di scadenze, requisiti e altre informazioni importanti, leggi i termini e le condizioni di servizio.",
  "conditions_attachments": [],
  "compilation_info": "",
  "final_indications": "La domanda è stata correttamente registrata, non ti sono richieste altre operazioni. Grazie per la tua collaborazione.",
  "access_level": 0,
  "workflow": 0,
  "status": 3,
  "integrations": [],
  "identifier": "inefficiencies",
  "app_version": "2.42.0",
  "created_at": "2024-04-20T16:23:43+01:00",
  "updated_at": "2024-09-17T23:13:18+01:00",
  "calendar": null,
  "backoffice_form_id": "66e95788e830010045715850",
  "feedback_messages": {
    "it" : {
      "1000": {
        "name": "Bozza",
        "trigger": "1000",
        "subject": "Notifica di creazione segnalazione in bozza a tuo nome",
        "message": "<p>Gentile <strong>%user_name%</strong>,<br>&egrave; stata creata una segnalazione in bozza a tuo nome, entra nella tua stanza del cittadino e visita la sezione <em>Le mie pratiche</em> per procedere all'invio.<br>Grazie per la collaborazione.</p>",
        "is_active": false
      },
      "1900": {
        "name": "Inviata",
        "trigger": "1900",
        "subject": "Segnalazione inviata",
        "message": "<p>Gentile <strong>%user_name%</strong>,<br>la tua segnalazione n.&nbsp;<strong>%pratica_id%</strong> &egrave; stata correttamente inviata.&nbsp;</p><p>Puoi fare riferimento a questo identificativo in caso di comunicazioni relative alla tua segnalazione.<br>Riceverai futuri aggiornamenti in una comunicazione successiva.<br>Grazie per la collaborazione.</p>",
        "is_active": false
      },
      "2000": {
        "name": "Acquisita",
        "trigger": "2000",
        "subject": "Segnalazione ricevuta",
        "message": "<p>Gentile <strong>%user_name%</strong>,<br>la tua segnalazione n.&nbsp;<strong>%pratica_id%</strong> &egrave; stata correttamente ricevuta.&nbsp;</p><p>Puoi fare riferimento a questo identificativo in caso di comunicazioni relative alla tua segnalazione.<br>Riceverai futuri aggiornamenti in una comunicazione successiva.<br>Grazie per la collaborazione.</p>",
        "is_active": true
      },
      "3000": {
        "name": "Protocollata",
        "trigger": "3000",
        "subject": "Segnalazione protocollata",
        "message": "<p>Gentile&nbsp;<strong>%user_name%</strong>,<br>la tua segnalazione n.&nbsp;<strong>%pratica_id%</strong> &egrave; stata correttamente protocollata.&nbsp;</p><p>&nbsp;Il numero di protocollo &egrave; <strong>%protocollo%</strong>.</p><p>Il prima possibile verr&agrave; presa in carico da un nostro operatore che provveder&agrave; al controllo e all'elaborazione della segnalazione.</p><p>&nbsp;</p><p><br>Grazie per la collaborazione.</p>",
        "is_active": true
      },
      "4000": {
        "name": "Presa in carico",
        "trigger": "4000",
        "subject": "Segnalazione presa in carico",
        "message": "<p>Gentile&nbsp;<strong>%user_name%</strong>,la tua segnalazione n.&nbsp;<strong>%pratica_id%</strong> &egrave; stata presa in carico da un nostro operatore.</p><p><br>Grazie per la collaborazione.</p>",
        "is_active": true
      },
      "7000": {
        "name": "Iter completato",
        "trigger": "7000",
        "subject": "Aggiornamenti in merito alla tua segnalazione",
        "message": "<p>Gentile <strong>%user_name%</strong>,<br>la tua segnalazione n.&nbsp;<strong>%pratica_id%</strong> &egrave; stata approvata.</p><p><br>%messaggio_personale%</p><p><br>Grazie per la collaborazione.</p>",
        "is_active": true
      },
      "9000": {
        "name": "Rifiutata",
        "trigger": "9000",
        "subject": "Aggiornamenti in merito alla tua segnalazione",
        "message": "<p>Gentile <strong>%user_name%</strong>,<br>la tua segnalazione n.&nbsp;<strong>%pratica_id%</strong> &egrave; stata rifiutata.</p><p><br>%messaggio_personale%</p><p><br>Grazie per la collaborazione.</p>",
        "is_active": true
      },
      "20000": {
        "name": "Ritirata",
        "trigger": "20000",
        "subject": "Aggiornamenti in merito alla tua segnalazione",
        "message": "<p>Gentile <strong>%user_name%</strong>,<br>la tua segnalazione n.&nbsp;<strong>%pratica_id%</strong> &egrave; stata ritirata.</p><p><br>Grazie per la collaborazione.</p>",
        "is_active": true
      }
    },
    "de" : {
      "1000": {
        "name": "Bozza",
        "trigger": "1000",
        "subject": "Benachrichtigung über die Erstellung eines Entwurfs in Ihrem Namen",
        "message": "<p>Sehr geehrte/-r <strong>%user_name%</strong>,<br>&ein Berichtsentwurf wurde in Ihrem Namen erstellt, loggen Sie sich in Ihren persönlichen Bereich ein und besuchen Sie den Abschnitt <em>Meine Vorgänge</em> um mit der Übermittlung fortzufahren.<br>Danke für Ihre Mitarbeit.</p>",
        "is_active": false
      },
      "1900": {
        "name": "Inviata",
        "trigger": "1900",
        "subject": "Bericht gesendet",
        "message": "<p>Sehr geehrte/-r <strong>%user_name%</strong>,<br>Ihr Bericht Nr.&nbsp;<strong>%pratica_id%</strong> wurde erfolgreich gesendet.&nbsp;</p><p>Sie können sich auf diese Kennung berufen, wenn Sie eine Mitteilung zu Ihrem Bericht erhalten.<br>Künftige Aktualisierungen erhalten Sie in einer späteren Mitteilung.<br>Danke für Ihre Mitarbeit.</p>",
        "is_active": false
      },
      "2000": {
        "name": "Acquisita",
        "trigger": "2000",
        "subject": "Bericht empfangen",
        "message": "<p>Sehr geehrte/-r <strong>%user_name%</strong>,<br>Ihr Bericht Nr.&nbsp;<strong>%pratica_id%</strong> wurde erfolgreich empfangen.&nbsp;</p><p>Sie können sich auf diese Kennung berufen, wenn Sie eine Mitteilung zu Ihrem Bericht erhalten.<br>Künftige Aktualisierungen erhalten Sie in einer späteren Mitteilung.<br>Danke für Ihre Mitarbeit.</p>",
        "is_active": true
      },
      "3000": {
        "name": "Protocollata",
        "trigger": "3000",
        "subject": "Registrierter Bericht",
        "message": "<p>Sehr geehrte/-r&nbsp;<strong>%user_name%</strong>,Ihr Bericht Nr.&nbsp;<strong>%pratica_id%</strong> wurde korrekt registriert.&nbsp;</p><p>&nbsp;Die Protokollnummer lautet <strong>%protocollo%</strong>.</p><p>Sie wird so bald wie möglich von einem unserer Mitarbeiter übernommen, der die Meldung überprüft und bearbeitet.</p><p>&nbsp;</p><p><br>Danke für Ihre Mitarbeit.</p>",
        "is_active": true
      },
      "4000": {
        "name": "Presa in carico",
        "trigger": "4000",
        "subject": "Bericht übernommen",
        "message": "<p>Sehr geehrte/-r&nbsp;<strong>%user_name%</strong>,Ihr Bericht Nr.&nbsp;<strong>%pratica_id%</strong> wurde von einem unserer Mitarbeiter übernommen.</p><p><br>Danke für Ihre Mitarbeit.</p>",
        "is_active": true
      },
      "7000": {
        "name": "Iter completato",
        "trigger": "7000",
        "subject": "Aktualisierungen zu Ihrem Bericht",
        "message": "<p>Sehr geehrte/-r <strong>%user_name%</strong>,<br>Ihr Bericht Nr.&nbsp;<strong>%pratica_id%</strong> wurde genehmigt.</p><p><br>%messaggio_personale%</p><p><br>Danke für Ihre Mitarbeit.</p>",
        "is_active": true
      },
      "9000": {
        "name": "Rifiutata",
        "trigger": "9000",
        "subject": "Aktualisierungen zu Ihrem Bericht",
        "message": "<p>Sehr geehrte/-r <strong>%user_name%</strong>,<br>Ihr Bericht Nr.&nbsp;<strong>%pratica_id%</strong> wurde abgelehnt.</p><p><br>%messaggio_personale%</p><p><br>Danke für Ihre Mitarbeit.</p>",
        "is_active": true
      },
      "20000": {
        "name": "Ritirata",
        "trigger": "20000",
        "subject": "Aktualisierungen zu Ihrem Bericht",
        "message": "<p>Sehr geehrte/-r <strong>%user_name%</strong>,<br>la tua segnalazione n.&nbsp;<strong>%pratica_id%</strong> wurde zurückgezogen.</p><p><br>Danke für Ihre Mitarbeit.</p>",
        "is_active": true
      }
    },
    "en" : {
      "1000": {
        "name": "Bozza",
        "trigger": "1000",
        "subject": "Notification of draft report creation in your name",
        "message": "<p>Dear <strong>%user_name%</strong>,<br>a draft report has been created in your name, log in to your personal area and visit the <em>Le mie pratiche</em> section to proceed with the submission.<br>Thank you for your cooperation.</p>",
        "is_active": false
      },
      "1900": {
        "name": "Inviata",
        "trigger": "1900",
        "subject": "Report submitted",
        "message": "<p>Dear <strong>%user_name%</strong>,<br>your report no.&nbsp;<strong>%pratica_id%</strong> has been successfully submitted.&nbsp;</p><p>You can refer to this ID for any communication regarding your report.<br>You will receive future updates in a subsequent communication.<br>Thank you for your cooperation.</p>",
        "is_active": false
      },
      "2000": {
        "name": "Acquisita",
        "trigger": "2000",
        "subject": "Report received",
        "message": "<p>Dear <strong>%user_name%</strong>,<br>your report no.&nbsp;<strong>%pratica_id%</strong> has been successfully received.&nbsp;</p><p>You can refer to this ID for any communication regarding your report.<br>You will receive future updates in a subsequent communication.<br>Thank you for your cooperation.</p>",
        "is_active": true
      },
      "3000": {
        "name": "Protocollata",
        "trigger": "3000",
        "subject": "Report registered",
        "message": "<p>Dear&nbsp;<strong>%user_name%</strong>, your report no.&nbsp;<strong>%pratica_id%</strong> has been successfully registered.&nbsp;</p><p>&nbsp;The protocol number is <strong>%protocollo%</strong>.</p><p>It will be taken over by one of our operators as soon as possible, who will check and process the report.</p><p>&nbsp;</p><p><br>Thank you for your cooperation.</p>",
        "is_active": true
      },
      "4000": {
        "name": "Presa in carico",
        "trigger": "4000",
        "subject": "Report taken over",
        "message": "<p>Dear&nbsp;<strong>%user_name%</strong>, your report no.&nbsp;<strong>%pratica_id%</strong> has been taken over by one of our operators.</p><p><br>Thank you for your cooperation.</p>",
        "is_active": true
      },
      "7000": {
        "name": "Iter completato",
        "trigger": "7000",
        "subject": "Updates regarding your report",
        "message": "<p>Dear <strong>%user_name%</strong>,<br>your report no.&nbsp;<strong>%pratica_id%</strong> has been approved.</p><p><br>%messaggio_personale%</p><p><br>Thank you for your cooperation.</p>",
        "is_active": true
      },
      "9000": {
        "name": "Rifiutata",
        "trigger": "9000",
        "subject": "Updates regarding your report",
        "message": "<p>Dear <strong>%user_name%</strong>,<br>your report no.&nbsp;<strong>%pratica_id%</strong> has been rejected.</p><p><br>%messaggio_personale%</p><p><br>Thank you for your cooperation.</p>",
        "is_active": true
      },
      "20000": {
        "name": "Ritirata",
        "trigger": "20000",
        "subject": "Updates regarding your report",
        "message": "<p>Dear <strong>%user_name%</strong>,<br>your report no.&nbsp;<strong>%pratica_id%</strong> has been withdrawn.</p><p><br>Thank you for your cooperation.</p>",
        "is_active": true
      }
    }
  }
}
